Hi-C analysis with Bioconductor<br>Package Demo<br>Bioc2023 Conference – interoperability
…
df <- results(mhicc) |> 
    as_tibble() |> 
    mutate(group = case_when(
        region1 < 430000 & region2 > 450000 ~ 'Inter arms',
        region1 >= 430000 & region2 <= 450000 ~ 'At centro',
        .default = 'Intra arms'
    )) |> 
    mutate(sign = p.value <= 0.05 & abs(logFC) >= 1)
df
##  # A tibble: 36,228 × 10
##      chr region1 region2     D   logFC logCPM p.value   p.adj group      sign 
##    <dbl>   <int>   <int> <dbl>   <dbl>  <dbl>   <dbl>   <dbl> <chr>      <lgl>
##  1    11       1       1     0  0.540    4.81 5.39e-1 7.95e-1 Intra arms FALSE
##  2    11       1    2001     1 -0.226    5.82 7.00e-1 8.81e-1 Intra arms FALSE
##  3    11       1    4001     2  0.506    7.70 5.94e-2 2.17e-1 Intra arms FALSE
##  4    11       1    6001     3  1.27     8.10 6.49e-7 5.84e-5 Intra arms TRUE 
##  5    11       1    8001     4  0.0998   7.55 8.02e-1 9.34e-1 Intra arms FALSE
##  6    11       1   10001     5  0.759    6.57 1.00e-1 3.14e-1 Intra arms FALSE
##  # ℹ 36,222 more rows
…
