Hi-C analysis with Bioconductor<br>Package Demo<br>Bioc2023 Conference – investigating
…
pairsf <- HiContactsData('yeast_wt', 'pairs.gz')
##  see ?HiContactsData and browseVignettes('HiContactsData') for documentation
##  loading from cache
pairsFile(hic) <- pairsf
eco1_pairsf <- HiContactsData('yeast_eco1', 'pairs.gz')
##  see ?HiContactsData and browseVignettes('HiContactsData') for documentation
##  loading from cache
hic_eco1 <- PairsFile(eco1_pairsf)

ps <- distanceLaw(hic, by_chr = TRUE) 
##  Importing pairs file /home/rsg/.cache/R/ExperimentHub/24a464c5ca2_7753 in memory. This may take a while...
ps_eco1 <- distanceLaw(hic_eco1, by_chr = TRUE) 
##  Importing pairs file /home/rsg/.cache/R/ExperimentHub/6df72d47b9d_7755 in memory. This may take a while...
ps
##  # A tibble: 115 × 6
##    chr   binned_distance          p     norm_p norm_p_unity slope
##    <chr>           <dbl>      <dbl>      <dbl>        <dbl> <dbl>
##  1 II                 14 0.00000212 0.00000106         2.27  0   
##  2 II                 16 0.0000170  0.0000170         36.4   1.56
##  3 II                 17 0.0000361  0.0000180         38.6   1.55
##  4 II                 19 0.0000424  0.0000212         45.5   1.55
##  5 II                 21 0.0000467  0.0000233         50.0   1.54
##  6 II                 23 0.0000870  0.0000290         62.1   1.53
##  # ℹ 109 more rows
ps_eco1
##  # A tibble: 115 × 6
##    chr   binned_distance          p     norm_p norm_p_unity slope
##    <chr>           <dbl>      <dbl>      <dbl>        <dbl> <dbl>
##  1 II                 14 0.00000201 0.00000100        0.660  0   
##  2 II                 16 0.0000221  0.0000221        14.5    1.46
##  3 II                 17 0.0000492  0.0000246        16.2    1.46
##  4 II                 19 0.0000412  0.0000206        13.5    1.45
##  5 II                 21 0.0000653  0.0000326        21.5    1.45
##  6 II                 23 0.0000803  0.0000268        17.6    1.44
##  # ℹ 109 more rows
…
Cis-trans ratio

full_hic <- import(
    CoolFile(HiContactsData('yeast_wt', 'mcool')), 
    resolution = 2000
)
##  see ?HiContactsData and browseVignettes('HiContactsData') for documentation
##  loading from cache
cis_trans <- cisTransRatio(full_hic) 
cis_trans
##  # A tibble: 16 × 6
##  # Groups:   chr [16]
##    chr       cis  trans n_total cis_pct trans_pct
##    <fct>   <dbl>  <dbl>   <dbl>   <dbl>     <dbl>
##  1 I      186326  96738  283064   0.658     0.342
##  2 II     942728 273966 1216694   0.775     0.225
##  3 III    303980 127087  431067   0.705     0.295
##  4 IV    1858062 418218 2276280   0.816     0.184
##  5 V      607090 220873  827963   0.733     0.267
##  6 VI     280282 127771  408053   0.687     0.313
##  # ℹ 10 more rows
…
